person_id/data
741c2cfe-8d39-4969-b344-7c8c1f347119/{"personId":"741c2cfe-8d39-4969-b344-7c8c1f347119","fullName":{"firstName":"Jeroen","lastName":"Stroobants"}}
289a3044-babe-41fc-8d3b-bc1b5a537321/{"personId":"289a3044-babe-41fc-8d3b-bc1b5a537321","fullName":{"firstName":"Sarah","lastName":"Smagghe"}}
f16e4043-8bf6-48e6-afe7-9f984427c14c/{"personId":"f16e4043-8bf6-48e6-afe7-9f984427c14c","fullName":{"firstName":"Wietse","lastName":"Wilson"}}
028241cd-bd26-4275-a37d-8dbb2d3a42ca/{"personId":"028241cd-bd26-4275-a37d-8dbb2d3a42ca","fullName":{"firstName":"Ellen","lastName":"Stroobants"}}
edaea2d6-e578-43d4-9220-bb35c2078b8a/{"personId":"edaea2d6-e578-43d4-9220-bb35c2078b8a","fullName":{"firstName":"Maarten","lastName":"Devillé"}}